{
  "iisSettings": {
    "windowsAuthentication": false,
    "anonymousAuthentication": true,
    "iis": {
      "applicationUrl": "http://localhost/ApplicationManager",
      "sslPort": 0
    },
    "iisExpress": {
      "applicationUrl": "http://localhost:50023",
      "sslPort": 44382
    }
  },
  "$schema": "http://json.schemastore.org/launchsettings.json",
  "profiles": {
    "IIS Express": {
      "commandName": "IIS",
      "launchUrl": "http://localhost/ApplicationManager/ApiSend",
      "environmentVariables": {
        "ASPNETCORE_ENVIRONMENT": "Development"
      }
    },
    "WebApplication1": {
      "commandName": "Project",
      "launchBrowser": true,
      "launchUrl": "swagger",
      "environmentVariables": {
        "ASPNETCORE_ENVIRONMENT": "Development"
      },
      "dotnetRunMessages": "true",
      "applicationUrl": "https://localhost:5001;http://localhost:5000"
    }
  }
}